<?xml version="1.0" encoding="UTF-8" standalone="no"?>
<svg id="svg548" xmlns:rdf="http://www.w3.org/1999/02/22-rdf-syntax-ns#" xmlns="http://www.w3.org/2000/svg" height="512" width="512" version="1" y="0" x="0" xmlns:cc="../../../../creativecommons.org/ns#" xmlns:dc="../../../../purl.org/dc/elements/1.1/default.htm">
 <metadata id="metadata3486">
  <rdf:RDF>
   <cc:Work rdf:about="">
  <dc:format>image/svg+xml</dc:format>
  <dc:type rdf:resource="../../../../purl.org/dc/dcmitype/StillImage"/>
   </cc:Work>
  </rdf:RDF>
 </metadata>
 <g id="flag" fill-rule="evenodd" stroke-width="1pt" transform="matrix(.68808 0 0 1.0321 0 .000048060)">
  <rect id="rect551" height="248.03" width="496.06" y="-0.000023" x="248.03" fill="#ff3319"/>
  <rect id="rect552" height="248.03" width="496.06" y="248.03" x="248.03" fill="#00cc28"/>
  <rect id="rect553" height="496.06" width="248.03" y="-0.000038" x="0" fill="#fff"/>
 </g>
</svg>
