<?xml version="1.0" encoding="UTF-8" standalone="no"?>
<svg id="svg378" xmlns:rdf="http://www.w3.org/1999/02/22-rdf-syntax-ns#" xmlns="http://www.w3.org/2000/svg" height="512" width="512" version="1" y="0" x="0" xmlns:cc="../../../../creativecommons.org/ns#" xmlns:dc="../../../../purl.org/dc/elements/1.1/default.htm">
 <metadata id="metadata3151">
  <rdf:RDF>
   <cc:Work rdf:about="">
  <dc:format>image/svg+xml</dc:format>
  <dc:type rdf:resource="../../../../purl.org/dc/dcmitype/StillImage"/>
   </cc:Work>
  </rdf:RDF>
 </metadata>
 <g id="flag" fill-rule="evenodd" stroke-width="1pt" transform="matrix(.48166 0 0 .71932 0 -.0000019907)">
  <rect id="rect171" rx="0" ry="0" height="708.66" width="1063" y="0" x="0" fill="#fff"/>
  <rect id="rect256" rx="0" ry="0" height="236.22" width="1063" y="475.56" x="0" fill="#21468b"/>
  <rect id="rect255" height="236.22" width="1063" y="0" x="0" fill="#ae1c28"/>
 </g>
</svg>
