<?xml version="1.0" encoding="UTF-8" standalone="no"?>
<svg id="svg589" xmlns:rdf="http://www.w3.org/1999/02/22-rdf-syntax-ns#" xmlns="http://www.w3.org/2000/svg" height="512" width="512" version="1.1" xmlns:cc="../../../../creativecommons.org/ns#" xmlns:dc="../../../../purl.org/dc/elements/1.1/default.htm">
 <metadata id="metadata3065">
  <rdf:RDF>
   <cc:Work rdf:about="">
  <dc:format>image/svg+xml</dc:format>
  <dc:type rdf:resource="../../../../purl.org/dc/dcmitype/StillImage"/>
   </cc:Work>
  </rdf:RDF>
 </metadata>
 <defs id="defs591">
  <clipPath id="clipPath5088" clipPathUnits="userSpaceOnUse">
   <rect id="rect5090" fill-opacity="0.67" height="490.73" width="490.73" y="7.3057" x="118.97"/>
  </clipPath>
 </defs>
 <g id="flag" clip-path="url(#clipPath5088)" transform="matrix(1.0433 0 0 1.0433 -124.12 -7.6224)">
  <g id="g558" fill-rule="evenodd" stroke-width="1pt" transform="matrix(2.8042 0 0 2.8042 -595.4 -921.91)">
   <rect id="rect552" height="70" width="87.5" y="331.47" x="213.36" fill="#006aa7"/>
   <rect id="rect553" height="70" width="87.5" y="436.36" x="213.36" fill="#006aa7"/>
   <rect id="rect554" height="35" width="87.5" y="401.43" x="213.36" fill="#fecc00"/>
   <rect id="rect556" height="175" width="35" y="331.37" x="300.5" fill="#fecc00"/>
   <rect id="rect557" height="35" width="157.5" y="401.44" x="334.39" fill="#fecc00"/>
   <rect id="rect558" height="70" width="157.5" y="436.37" x="335.47" fill="#006aa7"/>
   <rect id="rect559" height="70" width="157.5" y="331.47" x="335.47" fill="#006aa7"/>
  </g>
 </g>
</svg>
