<?xml version="1.0" encoding="UTF-8" standalone="no"?>
<svg id="svg3446" xmlns:rdf="http://www.w3.org/1999/02/22-rdf-syntax-ns#" xmlns="http://www.w3.org/2000/svg" height="512" width="512" version="1.1" xmlns:cc="../../../../creativecommons.org/ns#" xmlns:dc="../../../../purl.org/dc/elements/1.1/default.htm">
 <metadata id="metadata3750">
  <rdf:RDF>
   <cc:Work rdf:about="">
  <dc:format>image/svg+xml</dc:format>
  <dc:type rdf:resource="../../../../purl.org/dc/dcmitype/StillImage"/>
   </cc:Work>
  </rdf:RDF>
 </metadata>
 <defs id="defs3448">
  <clipPath id="clipPath7106" clipPathUnits="userSpaceOnUse">
   <rect id="rect7108" fill-opacity="0.67" height="496.76" width="496.76" y="-.000021551" x="248.38"/>
  </clipPath>
 </defs>
 <g id="flag" clip-path="url(#clipPath7106)" fill-rule="evenodd" transform="matrix(1.0307 0 0 1.0307 -256 .000022212)">
  <rect id="rect3450" height="496.76" width="992.91" y="0" x="0" stroke-width="1pt" fill="#fff"/>
  <rect id="rect3449" height="134.98" width="992.16" y="361.35" x="0" stroke-width="1pt" fill="#239f40"/>
  <rect id="rect3452" height="134.98" width="992.16" y="0" x="0" stroke-width="1pt" fill="#cd1738"/>
  <polygon id="polygon3940" d="m 391.56052,256.53049 3.57095,11.242 11.56027,-0.24853 -9.58829,6.87015 3.80868,10.91768 -9.49685,-6.99602 -9.20637,6.99602 3.71892,-11.19393 -9.49854,-6.59389 11.79527,0.0778 z" points="391.56 256.53 395.13 267.77 406.69 267.52 397.1 274.39 400.91 285.31 391.42 278.32 382.21 285.31 385.93 274.12 376.43 267.52 388.22 267.6" transform="matrix(1 0 0 1.0461 11.932 -62.42)" fill="#ff0"/>
  <polygon id="polygon3941" d="m 391.56052,256.53049 3.57095,11.242 11.56027,-0.24853 -9.58829,6.87015 3.80868,10.91768 -9.49685,-6.99602 -9.20637,6.99602 3.71892,-11.19393 -9.49854,-6.59389 11.79527,0.0778 z" points="391.56 256.53 395.13 267.77 406.69 267.52 397.1 274.39 400.91 285.31 391.42 278.32 382.21 285.31 385.93 274.12 376.43 267.52 388.22 267.6" transform="matrix(1 0 0 1.0461 .44191 -12.038)" fill="#ff0"/>
  <polygon id="polygon3942" d="m 391.56052,256.53049 3.57095,11.242 11.56027,-0.24853 -9.58829,6.87015 3.80868,10.91768 -9.49685,-6.99602 -9.20637,6.99602 3.71892,-11.19393 -9.49854,-6.59389 11.79527,0.0778 z" points="391.56 256.53 395.13 267.77 406.69 267.52 397.1 274.39 400.91 285.31 391.42 278.32 382.21 285.31 385.93 274.12 376.43 267.52 388.22 267.6" transform="matrix(1 0 0 1.0461 50.823 -103.52)" fill="#ff0"/>
  <polygon id="polygon3943" d="m 391.56052,256.53049 3.57095,11.242 11.56027,-0.24853 -9.58829,6.87015 3.80868,10.91768 -9.49685,-6.99602 -9.20637,6.99602 3.71892,-11.19393 -9.49854,-6.59389 11.79527,0.0778 z" points="391.56 256.53 395.13 267.77 406.69 267.52 397.1 274.39 400.91 285.31 391.42 278.32 382.21 285.31 385.93 274.12 376.43 267.52 388.22 267.6" transform="matrix(1 0 0 1.0461 103.19 -117.22)" fill="#ff0"/>
  <polygon id="polygon3944" d="m 391.56052,256.53049 3.57095,11.242 11.56027,-0.24853 -9.58829,6.87015 3.80868,10.91768 -9.49685,-6.99602 -9.20637,6.99602 3.71892,-11.19393 -9.49854,-6.59389 11.79527,0.0778 z" points="391.56 256.53 395.13 267.77 406.69 267.52 397.1 274.39 400.91 285.31 391.42 278.32 382.21 285.31 385.93 274.12 376.43 267.52 388.22 267.6" transform="matrix(1 0 0 1.0461 156.01 -103.52)" fill="#ff0"/>
  <polygon id="polygon3945" d="m 391.56052,256.53049 3.57095,11.242 11.56027,-0.24853 -9.58829,6.87015 3.80868,10.91768 -9.49685,-6.99602 -9.20637,6.99602 3.71892,-11.19393 -9.49854,-6.59389 11.79527,0.0778 z" points="391.56 256.53 395.13 267.77 406.69 267.52 397.1 274.39 400.91 285.31 391.42 278.32 382.21 285.31 385.93 274.12 376.43 267.52 388.22 267.6" transform="matrix(1 0 0 1.0461 194.9 -62.199)" fill="#ff0"/>
  <polygon id="polygon3946" d="m 391.56052,256.53049 3.57095,11.242 11.56027,-0.24853 -9.58829,6.87015 3.80868,10.91768 -9.49685,-6.99602 -9.20637,6.99602 3.71892,-11.19393 -9.49854,-6.59389 11.79527,0.0778 z" points="391.56 256.53 395.13 267.77 406.69 267.52 397.1 274.39 400.91 285.31 391.42 278.32 382.21 285.31 385.93 274.12 376.43 267.52 388.22 267.6" transform="matrix(1 0 0 1.0461 206.17 -12.038)" fill="#ff0"/>
  <path id="path3952" d="m516.09 230.63c0 9.2551-9.3391 16.758-20.859 16.758s-20.859-7.5027-20.859-16.758c0-9.2551 9.3391-16.758 20.859-16.758s20.859 7.5028 20.859 16.758z" transform="matrix(.96067 0 0 .90210 19.124 20.782)" fill="#ff0"/>
  <rect id="rect3953" height="53.281" width="11.445" y="239.5" x="489.1" fill="#ff0"/>
  <path id="path4004" d="m595.32 288.76c-4.981 10.57-11.684 14.321-22.625 14.028-19.148 0.454-23.475-13.61-25.971-19.819-6.768 8.92-10.615 12.466-21.85 12.251-16.007 0.358-24.088-8.753-30.055-25.979-5.967 17.116-14.048 26.227-30.055 25.869-11.235 0.215-15.082-3.331-21.85-12.251-2.496 6.209-6.823 20.273-25.971 19.819-10.941 0.293-17.644-3.458-22.128-14.175 5.205 14.967 10.361 23.342 26.344 23.864 14.476 0.174 21.105-8.21 24.242-13.944 10.429 5.54 11.501 6.77 26.287 6.423 11.037-0.355 17.377-7.566 23.089-14.427 5.712 6.861 12.052 14.072 23.089 14.427 14.786 0.347 15.858-0.883 26.287-6.423 3.137 5.734 9.766 14.118 24.242 13.944 15.983-0.522 21.139-8.897 26.925-23.607z" fill="#ff0"/>
  <path id="path4048" d="m446.47 304.18 5.225 7.241 10.019-0.294-7.732 8.762-15.137 0.387-4.735-6.342 8.743-1.413 3.671-8.32" fill="#ff0"/>
  <path id="path4049" d="m446.47 304.18 5.225 7.241 10.019-0.294-7.732 8.762-15.137 0.387-4.735-6.342 8.743-1.413 3.671-8.32" transform="matrix(-1 0 0 1 989.44 -.000015259)" fill="#ff0"/>
  <path id="path4053" d="m482.23 308.84c0-0.039 6.875 0.039 6.875 0.039l5.781-4.609 5.644 4.551 6.817 0.098-6.133 9.062h-12.891l-6.093-9.141z" fill="#ff0"/>
  <path id="path4100" d="m569.2 341.11c-26.731-5.519-44.622-8.234-74.413-8.234s-47.682 2.715-74.244 8.168l-0.037-11.525c26.599-5.503 44.49-8.219 74.281-8.219s47.682 2.716 74.281 8.219l0.132 11.591z" fill="#ff0"/>
  <path id="path4102" d="m505.31 228.88c0 3.2792-4.687 5.9375-10.469 5.9375-5.7817 0-10.469-2.6583-10.469-5.9375s4.687-5.9375 10.469-5.9375c5.7817 0 10.469 2.6583 10.469 5.9375z" fill="#fff"/>
 </g>
</svg>
