<?xml version="1.0" encoding="UTF-8" standalone="no"?>
<svg id="svg548" xmlns:rdf="http://www.w3.org/1999/02/22-rdf-syntax-ns#" xmlns="http://www.w3.org/2000/svg" height="480" width="640" version="1" y="0" x="0" xmlns:cc="../../../../creativecommons.org/ns#" xmlns:dc="../../../../purl.org/dc/elements/1.1/default.htm">
 <metadata id="metadata3486">
  <rdf:RDF>
   <cc:Work rdf:about="">
  <dc:format>image/svg+xml</dc:format>
  <dc:type rdf:resource="../../../../purl.org/dc/dcmitype/StillImage"/>
   </cc:Work>
  </rdf:RDF>
 </metadata>
 <g id="flag" stroke-width="1pt" fill-rule="evenodd">
  <rect id="rect551" height="240" width="426.67" y=".000014514" x="213.33" fill="#ff3319"/>
  <rect id="rect552" height="240" width="426.67" y="240" x="213.33" fill="#00cc28"/>
  <rect id="rect553" height="480" width="213.33" y="4.3291e-13" x="0" fill="#fff"/>
 </g>
</svg>
