<?xml version="1.0" encoding="UTF-8" standalone="no"?>
<svg id="svg378" xmlns:rdf="http://www.w3.org/1999/02/22-rdf-syntax-ns#" xmlns="http://www.w3.org/2000/svg" height="480" width="640" version="1" y="0" x="0" xmlns:cc="../../../../creativecommons.org/ns#" xmlns:dc="../../../../purl.org/dc/elements/1.1/default.htm">
 <metadata id="metadata3691">
  <rdf:RDF>
   <cc:Work rdf:about="">
  <dc:format>image/svg+xml</dc:format>
  <dc:type rdf:resource="../../../../purl.org/dc/dcmitype/StillImage"/>
   </cc:Work>
  </rdf:RDF>
 </metadata>
 <g id="flag" fill-rule="evenodd" stroke-width="1pt" transform="scale(.60207 .67733)">
  <rect id="rect171" height="708.66" width="1063" y="0" x="0" fill="#fff"/>
  <rect id="rect403" height="708.66" width="354.33" y="0" x="0" fill="#00267f"/>
  <rect id="rect135" height="708.66" width="354.33" y="0" x="708.66" fill="#f31830"/>
 </g>
</svg>
